User : Silvermoon

       Title : templates modification
       Description : how to use condtional statements in templates?
       Tags : SELECT tag.id AS tag_id, tag.name AS tag_name 
FROM tag, "QuestionTag" 
WHERE ? = "QuestionTag".qus_id AND tag.id = "QuestionTag".tag_id
       ========================================